friends
…
## The following object is masked from 'package:dplyr':
## 
##     collapse

episodes <- tt$friends_info %>%
  mutate(full_title = glue("{ season }.{ episode } { title }"),
         full_title = fct_reorder(full_title, season + .001 * episode))

friends <- tt$friends %>%
  inner_join(episodes, by = c("season", "episode"))
  
friends %>%
  count(season, full_title)

## # A tibble: 236 x 3
##    season full_title                                             n
##     <dbl> <fct>                                              <int>
##  1      1 1.1 The Pilot                                        323
##  2      1 1.2 The One with the Sonogram at the End             258
##  3      1 1.3 The One with the Thumb                           285
##  4      1 1.4 The One with George Stephanopoulos               260
##  5      1 1.5 The One with the East German Laundry Detergent   267
##  6      1 1.6 The One with the Butt                            238
##  7      1 1.7 The One with the Blackout                        258
##  8      1 1.8 The One Where Nana Dies Twice                    258
##  9      1 1.9 The One Where Underdog Gets Away                 251
## 10      1 1.10 The One with the Monkey                         257
## # ... with 226 more rows

tt$friends %>%
  count(speaker, sort = TRUE)

## # A tibble: 700 x 2
##    speaker              n
##    <chr>            <int>
##  1 Rachel Green      9312
##  2 Ross Geller       9157
##  3 Chandler Bing     8465
##  4 Monica Geller     8441
##  5 Joey Tribbiani    8171
##  6 Phoebe Buffay     7501
##  7 Scene Directions  6063
##  8 #ALL#              347
##  9 Mike Hannigan      330
## 10 Richard Burke      281
## # ... with 690 more rows
…
